Introdução ao R
…
Crie uma variável id para todos os sujeitos do dataframe e coloque
essa variável na primeira coluna. Não se esqueça de salvar essa
transformação no dataframe imdb.

imdb$id <- paste("s",1:nrow(imdb),sep = "")

imdb <- imdb %>% select(id,everything())

Selecione as variáveis título, duração, cor e gênero dos 1000
primeiros casos do banco de dados. Não precisa salvar.

imdb %>% select(titulo,duracao,cor,generos) %>% slice(1:1000)

## # A tibble: 1,000 x 4
##    titulo                      duracao cor   generos                            
##    <chr>                         <dbl> <chr> <chr>                              
##  1 Avatar                          178 Color Action|Adventure|Fantasy|Sci-Fi    
##  2 Pirates of the Caribbean: ~     169 Color Action|Adventure|Fantasy           
##  3 The Dark Knight Rises           164 Color Action|Thriller                    
##  4 John Carter                     132 Color Action|Adventure|Sci-Fi            
##  5 Spider-Man 3                    156 Color Action|Adventure|Romance           
##  6 Tangled                         100 Color Adventure|Animation|Comedy|Family|~
##  7 Avengers: Age of Ultron         141 Color Action|Adventure|Sci-Fi            
##  8 Batman v Superman: Dawn of~     183 Color Action|Adventure|Sci-Fi            
##  9 Superman Returns                169 Color Action|Adventure|Sci-Fi            
## 10 Pirates of the Caribbean: ~     151 Color Action|Adventure|Fantasy           
## # ... with 990 more rows
…
Selecione uma amostra aleatória do dataframe imdb com 45% dos filmes
relacionados. Não precisa salvar.

imdb %>% slice_sample(prop = .45)

## # A tibble: 1,670 x 16
##    id    titulo     ano diretor   duracao cor     generos    pais  classificacao
##    <chr> <chr>    <dbl> <chr>       <dbl> <chr>   <chr>      <chr> <chr>        
##  1 s144  Watchme~  2009 Zack Sny~     215 Color   Action|Dr~ USA   A partir de ~
##  2 s1534 Blood a~  1996 Bob Rafe~     101 Color   Crime|Dra~ USA   A partir de ~
##  3 s1802 Milk      2008 Gus Van ~     128 Color   Biography~ USA   A partir de ~
##  4 s1314 Flight    2012 Robert Z~     138 Color   Drama|Thr~ USA   A partir de ~
##  5 s2540 Boiler ~  2000 Ben Youn~     120 Color   Crime|Dra~ USA   A partir de ~
##  6 s2965 Midnigh~  1969 John Sch~     113 Black ~ Drama      USA   Outros       
##  7 s1374 Drag Me~  2009 Sam Raimi      99 Color   Horror|Th~ USA   A partir de ~
##  8 s3479 To Save~  2009 Brian Ba~     120 Color   Drama      USA   A partir de ~
##  9 s2267 Admissi~  2013 Paul Wei~     107 Color   Comedy|Dr~ USA   A partir de ~
## 10 s568  Dreamca~  2003 Lawrence~     136 Color   Drama|Hor~ USA   A partir de ~
## # ... with 1,660 more rows, and 7 more variables: orcamento <dbl>,
## #   receita <dbl>, nota_imdb <dbl>, likes_facebook <dbl>, ator_1 <chr>,
## #   ator_2 <chr>, ator_3 <chr>

sample_frac(imdb, 0.45, replace = FALSE) # superseded

## # A tibble: 1,671 x 16
##    id    titulo       ano diretor   duracao cor   generos    pais  classificacao
##    <chr> <chr>      <dbl> <chr>       <dbl> <chr> <chr>      <chr> <chr>        
##  1 s2023 Evil Dead   2013 Fede Alv~      96 Color Horror     USA   A partir de ~
##  2 s2307 Crossroad~  2002 Tamra Da~      93 Color Comedy|Dr~ USA   A partir de ~
##  3 s62   Hugo        2011 Martin S~     126 Color Adventure~ USA   Livre        
##  4 s3518 Poultryge~  2006 Lloyd Ka~     103 Color Comedy|Ho~ USA   Outros       
##  5 s1105 The Deep ~  1999 Ulu Gros~     106 Color Drama      USA   A partir de ~
##  6 s3380 The Speci~  2000 Craig Ma~      82 Color Action|Co~ USA   A partir de ~
##  7 s86   Interstel~  2014 Christop~     169 Color Adventure~ USA   A partir de ~
##  8 s1792 The Ameri~  2010 Anton Co~     105 Color Crime|Dra~ USA   A partir de ~
##  9 s1561 Tombstone   1993 George P~     134 Color Action|Bi~ USA   A partir de ~
## 10 s3453 Adulterer~  2015 H.M. Coa~      91 Color Crime|Dra~ USA   Outros       
## # ... with 1,661 more rows, and 7 more variables: orcamento <dbl>,
## #   receita <dbl>, nota_imdb <dbl>, likes_facebook <dbl>, ator_1 <chr>,
## #   ator_2 <chr>, ator_3 <chr>
…
# imdb %>% filter(diretor == "James Cameron" | diretor == "Steven Spielberg" | diretor == "Francis Ford Coppola" | diretor == "Tim Burton") %>% group_by(diretor) %>% summarise(imdb = mean(nota_imdb, na.rm = TRUE))

imdb_lucro <- imdb %>% group_by(diretor) %>% summarise(Orçamento_médio = mean(orcamento, na.rm = TRUE), Receita_média = mean(receita, na.rm = TRUE))

# imdb_lucro <- imdb %>% group_by(diretor) %>% 
#   summarise(orçamento = mean(orcamento, na.rm = TRUE),receita = mean(receita,na.rm=TRUE))

No dataframe anterior, crie a variável lucro, a partir das médias de
orçamento e receita. Identifique o diretor mais lucrativo e o que dá
mais prejuízo.

# o mais lucrativo
imdb_lucro %>% mutate(lucro = Receita_média - Orçamento_médio) %>% arrange(desc(lucro))

## # A tibble: 1,813 x 4
##    diretor          Orçamento_médio Receita_média      lucro
##    <chr>                      <dbl>         <dbl>      <dbl>
##  1 Tim Miller              58000000    363024263  305024263 
##  2 George Lucas            70955400    348283696  277328296 
##  3 Richard Marquand        32500000    309125409  276625409 
##  4 Irvin Kershner          18000000    290158751  272158751 
##  5 Kyle Balda              74000000    336029560  262029560 
##  6 Colin Trevorrow         75375000    328092532. 252717532.
##  7 Chris Buck             150000000    400736600  250736600 
##  8 Pierre Coffin           72500000    309775640  237275640 
##  9 Lee Unkrich            200000000    414984497  214984497 
## 10 Joss Whedon            170000000    369202360. 199202360.
## # ... with 1,803 more rows

# o que dá mais prejuízo
imdb_lucro %>% mutate(lucro = Receita_média - Orçamento_médio) %>% arrange(lucro)

## # A tibble: 1,813 x 4
##    diretor               Orçamento_médio Receita_média       lucro
##    <chr>                           <dbl>         <dbl>       <dbl>
##  1 Carl Rinsch                 175000000     38297305  -136702695 
##  2 Hironobu Sakaguchi          137000000     32131830  -104868170 
##  3 Sergey Bodrov                95000000     17176900   -77823100 
##  4 Ericson Core                105000000     28772222   -76227778 
##  5 Simon Wells                 115000000     39032067   -75967933 
##  6 Cedric Nicolas-Troyan       115000000     47952020   -67047980 
##  7 Oliver Hirschbiegel          80000000     15071514   -64928486 
##  8 Will Finn                    90000000     29243672.  -60756328.
##  9 Akiva Goldsman               60000000        22451   -59977549 
## 10 Pitof                       100000000     40198710   -59801290 
## # ... with 1,803 more rows
…
# imdb %>% count(diretor) %>% filter(n>=3) %>% select(diretor)
# retirar somente o vetor "diretores" do objeto imdb_diretores_3mais 
vetor_diretores <- imdb_diretores_3mais$diretor

# filtrar imdb caso o que estiver em diretor seja igual a um dos diretores constantes no vetor_diretores. 
imdb_sub1 <- imdb %>% filter(diretor %in% vetor_diretores)

Entre os diretores com 3 filmes ou mais, qual tem maior média de
nota_imdb?

imdb_sub1 %>% group_by(diretor) %>% summarise(média_imdb = mean(nota_imdb))%>% arrange(desc(média_imdb))

## # A tibble: 394 x 2
##    diretor           média_imdb
##    <chr>                  <dbl>
##  1 Christopher Nolan       8.43
##  2 Pete Docter             8.23
##  3 Quentin Tarantino       8.2 
##  4 Frank Capra             8.06
##  5 Tony Kaye               8.03
##  6 Peter Jackson           8.02
##  7 Billy Wilder            7.98
##  8 Frank Darabont          7.98
##  9 James Cameron           7.88
## 10 Charles Ferguson        7.87
## # ... with 384 more rows

imdb_sub1 %>% group_by(diretor) %>% summarise(média_imdb = mean(nota_imdb))%>% arrange(média_imdb)

## # A tibble: 394 x 2
##    diretor            média_imdb
##    <chr>                   <dbl>
##  1 Jason Friedberg          2.6 
##  2 Robert Iscove            4.4 
##  3 Michael Tiddes           4.43
##  4 Richard Benjamin         4.73
##  5 Brian Levant             4.76
##  6 John Whitesell           4.88
##  7 Tyler Perry              4.9 
##  8 Raja Gosnell             4.92
##  9 Stephen Kay              5   
## 10 William Brent Bell       5.1 
## # ... with 384 more rows
…
# df$v1 <- unlab(df[,9])
# df$v2 <- unlab(df[,10])
# df$v3 <- unlab(df[,11])
# df$v4 <- unlab(df[,12])
# df$v5 <- unlab(df[,13])
# 
# glimpse(df)

df6 <- df %>% select (1,2,9:13) %>% pivot_longer(cols = 3:7,               # variáveis a serem unidas em uma só. 
                                                 names_to = "observações", # nome dessa nova variável
                                                 values_to = "valores")    # valores correspondentes à nova variável

df6

## # A tibble: 30 x 4
##    id    sexo      observações valores
##    <chr> <fct>     <chr>         <dbl>
##  1 s1    masculino v1                2
##  2 s1    masculino v2                2
##  3 s1    masculino v3                5
##  4 s1    masculino v4                1
##  5 s1    masculino v5                3
##  6 s2    feminino  v1                4
##  7 s2    feminino  v2                1
##  8 s2    feminino  v3                3
##  9 s2    feminino  v4                5
## 10 s2    feminino  v5                2
## # ... with 20 more rows

# podemos inserir mais variáveis
# podemos usar uma função para identificar as variáveis que desejamos no formato longo.

df %>% select (1,2,3,4,9:13) %>% pivot_longer(starts_with("v"),           # função para selecionar variáveis
                                              names_to = "observações",   
                                              values_to = "valores")

## # A tibble: 30 x 6
##    id    sexo      idade escolaridade observações valores
##    <chr> <fct>     <dbl> <fct>        <chr>         <dbl>
##  1 s1    masculino    25 superior     v1                2
##  2 s1    masculino    25 superior     v2                2
##  3 s1    masculino    25 superior     v3                5
##  4 s1    masculino    25 superior     v4                1
##  5 s1    masculino    25 superior     v5                3
##  6 s2    feminino     32 médio        v1                4
##  7 s2    feminino     32 médio        v2                1
##  8 s2    feminino     32 médio        v3                3
##  9 s2    feminino     32 médio        v4                5
## 10 s2    feminino     32 médio        v5                2
## # ... with 20 more rows

# Se houver dados faltantes na variável "valores", podemos eliminar essas observações com o comando values_drop_na

df %>% select (1,2,3,4,9:13) %>% pivot_longer(starts_with("v"), 
                                              names_to = "observações", 
                                              values_to = "valores", 
                                              values_drop_na = TRUE) # função para remover dados faltantes.

## # A tibble: 30 x 6
##    id    sexo      idade escolaridade observações valores
##    <chr> <fct>     <dbl> <fct>        <chr>         <dbl>
##  1 s1    masculino    25 superior     v1                2
##  2 s1    masculino    25 superior     v2                2
##  3 s1    masculino    25 superior     v3                5
##  4 s1    masculino    25 superior     v4                1
##  5 s1    masculino    25 superior     v5                3
##  6 s2    feminino     32 médio        v1                4
##  7 s2    feminino     32 médio        v2                1
##  8 s2    feminino     32 médio        v3                3
##  9 s2    feminino     32 médio        v4                5
## 10 s2    feminino     32 médio        v5                2
## # ... with 20 more rows
…
